%YAML 1.1
%TAG !u! tag:unity3d.com,2011:
--- !u!162 &1
EditorUserSettings:
  m_ObjectHideFlags: 0
  serializedVersion: 4
  m_ConfigSettings:
    RecentlyUsedSceneGuid-0:
      value: 5a5757560101590a5d0c0e24427b5d44434e4c7a7b7a23677f2b4565b7b5353a
      flags: 0
    RecentlyUsedSceneGuid-1:
      value: 55060d03570d0d5f545c097548750c4444154f73787c72647a7b4f6be4b7643b
      flags: 0
    RecentlyUsedSceneGuid-2:
      value: 020250075d005c08080b0e21477a0844134e1b7d792e25327e281e35e4b93560
      flags: 0
    RecentlyUsedSceneGuid-3:
      value: 54070c525350515e5c5a5c21497506444e4e1b28742b233329711935e3b16d60
      flags: 0
    RecentlyUsedSceneGuid-4:
      value: 55000351040c58595508547b42760644454f487f2e702369297f1831b3e5306e
      flags: 0
    RecentlyUsedSceneGuid-5:
      value: 5400010551010b0c550a097314730f4417151d2c792d2733782a1f37bbe66c6c
      flags: 0
    RecentlyUsedSceneGuid-6:
      value: 0650050001015e0f0c5b0e7113265e44171640787c2b7e3629794c63b7b6376c
      flags: 0
    vcSharedLogLevel:
      value: 0d5e400f0650
      flags: 0
  m_VCAutomaticAdd: 1
  m_VCDebugCom: 0
  m_VCDebugCmd: 0
  m_VCDebugOut: 0
  m_SemanticMergeMode: 2
  m_DesiredImportWorkerCount: 5
  m_StandbyImportWorkerCount: 2
  m_IdleImportWorkerShutdownDelay: 60000
  m_VCShowFailedCheckout: 1
  m_VCOverwriteFailedCheckoutAssets: 1
  m_VCProjectOverlayIcons: 1
  m_VCHierarchyOverlayIcons: 1
  m_VCOtherOverlayIcons: 1
  m_VCAllowAsyncUpdate: 1
  m_ArtifactGarbageCollection: 1
